Message[302] C:\USERS\ANDREA\DESKTOP\LABMICROCOMPUTADORAS\PRACTICA2\EJERCICIO4P2\E4P2.ASM 39 : Register in operand not in bank 0.  Ensure that bank bits are correct.
Message[305] C:\USERS\ANDREA\DESKTOP\LABMICROCOMPUTADORAS\PRACTICA2\EJERCICIO4P2\E4P2.ASM 49 : Using default destination of 1 (file).
Message[305] C:\USERS\ANDREA\DESKTOP\LABMICROCOMPUTADORAS\PRACTICA2\EJERCICIO4P2\E4P2.ASM 76 : Using default destination of 1 (file).
Message[305] C:\USERS\ANDREA\DESKTOP\LABMICROCOMPUTADORAS\PRACTICA2\EJERCICIO4P2\E4P2.ASM 80 : Using default destination of 1 (file).
Message[305] C:\USERS\ANDREA\DESKTOP\LABMICROCOMPUTADORAS\PRACTICA2\EJERCICIO4P2\E4P2.ASM 84 : Using default destination of 1 (file).
