Warning[205] C:\USERS\ANDREA\DESKTOP\LABMICROCOMPUTADORAS\PRACTICA4\EJERCICIO2P4\EJ2P4.ASM 4 : Found directive in column 1. (include)
Message[301] C:\PROGRAM FILES (X86)\MPLAB IDE\MCHIP_TOOLS\P16F877.INC 37 : MESSAGE: (Processor-header file mismatch.  Verify selected processor.)
Warning[205] C:\USERS\ANDREA\DESKTOP\LABMICROCOMPUTADORAS\PRACTICA4\EJERCICIO2P4\EJ2P4.ASM 6 : Found directive in column 1. (org)
Warning[203] C:\USERS\ANDREA\DESKTOP\LABMICROCOMPUTADORAS\PRACTICA4\EJERCICIO2P4\EJ2P4.ASM 8 : Found opcode in column 1. (goto)
Warning[205] C:\USERS\ANDREA\DESKTOP\LABMICROCOMPUTADORAS\PRACTICA4\EJERCICIO2P4\EJ2P4.ASM 10 : Found directive in column 1. (org)
Warning[205] C:\USERS\ANDREA\DESKTOP\LABMICROCOMPUTADORAS\PRACTICA4\EJERCICIO2P4\EJ2P4.ASM 98 : Found directive in column 1. (end)
