004-005 @READ_PROGRAM_MEMORY.P1
004-005 @WRITE_PROGRAM_MEMORY.P2
008     PSP_DATA
015     CCP_1_LOW
015-016 CCP_1
016     CCP_1_HIGH
01B-01C CCP_2
01B     CCP_2_LOW
01C     CCP_2_HIGH
020-021 strtok.save
022-025 _Randseed
026     MAIN.x
027     MAIN.i
028     MAIN.Dato
029     MAIN.@SCRATCH
02A     @delay_ms1.P1
077     @SCRATCH
078     @SCRATCH
078     _RETURN_
079     @SCRATCH
07A     @SCRATCH
07B     @SCRATCH
10D-10E @READ_PROGRAM_MEMORY.P1
10D-10E @WRITE_PROGRAM_MEMORY.P2

00C0  @delay_ms1
1F00  loader16F877
00D4  MAIN
0004  @const330
0017  @const331
002C  @const332
004B  @const333
0068  @const334
007E  @const335
00A0  @const336
0205  @goto11351
00D4  @cinit
0136  StrtoulGO
0136  StrtolGO

Project Files:
    ejercicio5.c
    ..\..\..\..\..\Program Files (x86)\PICC\devices\16f877.h
    ..\..\..\..\..\Program Files (x86)\PICC\drivers\stdio.h
    ..\..\..\..\..\Program Files (x86)\PICC\drivers\string.h
    ..\..\..\..\..\Program Files (x86)\PICC\drivers\stddef.h
    ..\..\..\..\..\Program Files (x86)\PICC\drivers\ctype.h
    ..\..\..\..\..\Program Files (x86)\PICC\drivers\stdlib.h

Units:
    C:\Users\andrea\Desktop\LabMicrocomputadoras\practica8\ejercicio5.c (main)

Compiler Settings:
    Processor:      PIC16F877
    Pointer Size:   16
    ADC Range:      0-255
    Opt Level:      0
    Short,Int,Long: 1,8,16

Output Files:
    Errors:      C:\Users\andrea\Desktop\LabMicrocomputadoras\practica8\ejercicio5.err
    Ext Symbols: C:\Users\andrea\Desktop\LabMicrocomputadoras\practica8\ejercicio5.esym
    INHX8:       C:\Users\andrea\Desktop\LabMicrocomputadoras\practica8\ejercicio5.hex
    Symbols:     C:\Users\andrea\Desktop\LabMicrocomputadoras\practica8\ejercicio5.sym
    List:        C:\Users\andrea\Desktop\LabMicrocomputadoras\practica8\ejercicio5.lst
    Debug/COFF:  C:\Users\andrea\Desktop\LabMicrocomputadoras\practica8\ejercicio5.cof
    Call Tree:   ejercicio5.tre
    Statistics:  ejercicio5.sta
